[gd_scene load_steps=2 format=2]

[ext_resource path="res://scripts/Spawner.gd" type="Script" id=1]

[node name="PointSpawner" type="Position2D"]
script = ExtResource( 1 )

[node name="SpawnTimer" type="Timer" parent="."]
wait_time = 5.0

[connection signal="timeout" from="SpawnTimer" to="." method="_on_spawn_timeout"]
