[gd_scene load_steps=4 format=2]

[ext_resource path="res://addons/smoothing/smoothing_2d.gd" type="Script" id=1]
[ext_resource path="res://scenes/actors/TemplateEnemy.gd" type="Script" id=2]

[sub_resource type="RectangleShape2D" id=1]

[node name="TemplateEnemy" type="Node2D"]
script = ExtResource( 2 )

[node name="Body" type="Node2D" parent="."]
script = ExtResource( 1 )
target = NodePath("../Logic")

[node name="Logic" type="KinematicBody2D" parent="."]

[node name="CollisionShape2D" type="CollisionShape2D" parent="Logic"]
position = Vector2( 0, -10 )
shape = SubResource( 1 )

[node name="ShrinkTimer" type="Timer" parent="."]
