[gd_scene load_steps=4 format=2]

[ext_resource path="res://resources/sprites/particles/poff.png" type="Texture" id=1]

[sub_resource type="CanvasItemMaterial" id=77]
particles_animation = true
particles_anim_h_frames = 3
particles_anim_v_frames = 1
particles_anim_loop = false

[sub_resource type="ParticlesMaterial" id=78]
emission_shape = 2
emission_box_extents = Vector3( 5, 1, 1 )
flag_disable_z = true
direction = Vector3( -0.5, -0.5, 0 )
spread = 35.35
gravity = Vector3( 0, 98, 0 )
initial_velocity = 76.92
angular_velocity = 77.38
angular_velocity_random = 0.9
orbit_velocity = 0.0
orbit_velocity_random = 0.0
damping = 45.39
scale_random = 0.14
color = Color( 0.968627, 0.996078, 1, 1 )
anim_speed = 1.0
anim_speed_random = 0.13
anim_offset_random = 0.45

[node name="FootDust" type="Particles2D"]
material = SubResource( 77 )
amount = 6
lifetime = 0.67
randomness = 0.11
process_material = SubResource( 78 )
texture = ExtResource( 1 )
