[gd_scene load_steps=3 format=2]

[ext_resource path="res://resources/interface/label_bg.png" type="Texture" id=1]
[ext_resource path="res://scenes/interface/default_theme.tres" type="Theme" id=2]

[node name="Counter" type="NinePatchRect"]
self_modulate = Color( 1, 1, 1, 0.392157 )
margin_right = 100.0
margin_bottom = 32.0
rect_min_size = Vector2( 100, 32 )
theme = ExtResource( 2 )
texture = ExtResource( 1 )
patch_margin_left = 8
patch_margin_top = 8
patch_margin_right = 8
patch_margin_bottom = 8

[node name="Label" type="Label" parent="."]
margin_left = -4.0
margin_top = -2.0
margin_right = 28.0
margin_bottom = 10.0
text = "NAME"
align = 1
valign = 1

[node name="Value" type="Label" parent="."]
anchor_left = 0.5
anchor_top = 0.5
anchor_right = 0.5
anchor_bottom = 0.5
margin_left = -56.0
margin_top = -6.0
margin_right = 56.0
margin_bottom = 24.0
text = "VALUE"
align = 1
valign = 1
clip_text = true
